<?xml version="1.0" encoding="UTF-8" standalone="no"?>
<!-- Created with Inkscape (http://www.inkscape.org/) -->

<svg
   width="199.99997"
   height="130.77415"
   id="svg2985"
   version="1.1"
   inkscape:version="1.2.2 (b0a8486541, 2022-12-01)"
   sodipodi:docname="csv-data.svg"
   viewBox="0 0 199.99998 130.77416"
   xmlns:inkscape="http://www.inkscape.org/namespaces/inkscape"
   xmlns:sodipodi="http://sodipodi.sourceforge.net/DTD/sodipodi-0.dtd"
   xmlns="http://www.w3.org/2000/svg"
   xmlns:svg="http://www.w3.org/2000/svg">
  <defs
     id="defs2987" />
  <sodipodi:namedview
     id="base"
     pagecolor="#ffffff"
     bordercolor="#666666"
     borderopacity="1.0"
     inkscape:pageopacity="0.0"
     inkscape:pageshadow="2"
     inkscape:zoom="3.9525416"
     inkscape:cx="55.027884"
     inkscape:cy="50.726854"
     inkscape:current-layer="layer1"
     showgrid="true"
     inkscape:grid-bbox="true"
     inkscape:document-units="px"
     inkscape:snap-global="true"
     inkscape:window-width="1523"
     inkscape:window-height="1250"
     inkscape:window-x="1009"
     inkscape:window-y="82"
     inkscape:window-maximized="0"
     inkscape:snap-bbox="true"
     inkscape:bbox-nodes="true"
     inkscape:object-nodes="true"
     inkscape:snap-nodes="true"
     inkscape:showpageshadow="2"
     inkscape:pagecheckerboard="true"
     inkscape:deskcolor="#d1d1d1"
     showguides="true">
    <inkscape:grid
       type="xygrid"
       id="grid3311"
       originx="-10.346437"
       originy="-4.8044081" />
  </sodipodi:namedview>
  <g
     id="layer1"
     inkscape:label="Layer 1"
     inkscape:groupmode="layer"
     transform="translate(-10.346435,-4.8044079)">
    <path
       d="m 59.34763,4.8044079 v 5.7857111 l 0.08757,2.835262 h -0.05894 c -1.402742,-1.256622 -2.834683,-1.987542 -4.617331,-1.987542 -3.477628,0 -6.603936,2.863934 -6.603936,7.393613 0,4.734251 2.512631,7.335572 6.194812,7.335572 1.958002,0 3.77048,-1.140299 4.997885,-2.426155 h 0.05809 l 0.146511,2.075091 h 1.110332 V 4.8044079 Z m -46.312376,0.9057724 -0.02947,2.6012141 0.584188,6.3708296 h 1.05229 L 15.226446,8.3113944 V 5.7101803 Z m 6.077791,0 -0.02862,2.6012141 0.584187,6.3708296 h 1.052291 L 21.305089,8.3113944 V 5.7101803 Z m 50.633925,0 -0.02862,2.6012141 0.584188,6.3708296 H 71.35481 L 71.939014,8.3113944 V 5.7101803 Z m 6.078728,0 -0.02947,2.6012141 0.585125,6.3708296 h 1.051353 L 78.017811,8.3113944 V 5.7101803 Z m 31.729722,0 -0.0295,2.6012141 0.58511,6.3708296 h 1.05228 l 0.5842,-6.3708296 V 5.7101803 Z m 6.07871,0 -0.0295,2.6012141 0.58512,6.3708296 h 1.05135 l 0.58513,-6.3708296 V 5.7101803 Z m 88.44238,0 -0.0295,2.6012141 0.58418,6.3708296 h 1.05228 l 0.5842,-6.3708296 V 5.7101803 Z m 6.07871,0 -0.0295,2.6012141 0.58418,6.3708296 h 1.05231 L 210.3464,8.3113944 V 5.7101803 Z M 30.419101,6.5579054 V 7.726287 h 4.968378 V 24.647568 H 30.419101 V 25.81596 H 41.69933 V 24.647568 H 36.731872 V 7.726287 H 41.69933 V 6.5579054 Z M 131.77816,11.437839 c -2.25022,0 -3.91578,1.315618 -5.52309,3.039832 h -0.11704 l -0.14566,-2.688768 h -1.11125 V 25.81596 h 1.31581 V 15.763067 c 2.01645,-2.133337 3.38938,-3.155916 5.37659,-3.155916 2.77625,0 3.9456,1.49063 3.9456,4.646803 v 8.562006 h 1.31489 v -8.738007 c 0,-3.799083 -1.63676,-5.640114 -5.05593,-5.640114 z m 18.34951,0 c -2.48401,0 -4.93965,1.286043 -6.05016,2.075074 l 0.58513,0.964758 c 1.16893,-0.818281 3.2144,-1.90001 5.31852,-1.90001 3.21461,0 4.1495,2.133576 4.17874,4.44225 -7.59819,0.672145 -10.75412,2.162112 -10.75412,5.28905 0,2.659364 2.36671,3.858063 4.87994,3.858063 h 9.5e-4 c 2.07489,0 4.26596,-1.168869 5.87326,-2.454708 h 0.0589 l 0.14549,2.103644 h 1.08177 v -8.97113 c 0,-3.010036 -1.54868,-5.406991 -5.31854,-5.406991 z m 16.18599,0 c -1.57809,0 -2.4252,0.87663 -3.24347,2.250154 h -0.0589 l -0.14652,-1.89909 h -1.08082 V 25.81596 h 1.28631 V 15.236922 c 0.90594,-1.753414 1.72358,-2.629771 3.00942,-2.629771 1.3443,0 1.98754,1.081285 1.98754,3.185406 V 25.81596 h 1.22735 V 15.236922 c 0.93517,-1.753414 1.72423,-2.629771 2.98086,-2.629771 1.3735,0 2.01613,1.081285 2.01613,3.185406 V 25.81596 h 1.28631 V 15.646046 c 0,-2.805483 -1.08185,-4.208207 -3.03983,-4.208207 -1.5781,0 -2.42519,0.876886 -3.44802,2.484197 -0.37991,-1.665762 -1.25666,-2.484197 -2.77628,-2.484197 z m 21.47596,0 c -3.65299,0 -7.01398,2.805227 -7.01398,7.364124 0,4.617365 3.33149,7.365061 7.39359,7.365061 2.48403,0 4.06192,-0.818469 5.31856,-1.665967 l -0.52523,-0.964742 c -1.31507,0.905933 -2.80624,1.520377 -4.70578,1.520377 -3.27307,0 -6.04936,-2.134173 -6.16626,-6.050159 h 11.9234 c 0.0584,-0.350689 0.0589,-0.73017 0.0589,-1.080843 0,-4.032888 -2.42576,-6.487851 -6.28328,-6.487851 z m 0.0295,1.110332 c 2.86395,0 4.87993,1.724282 5.0845,5.34803 h -10.75411 c 0.37991,-3.419177 2.98103,-5.34803 5.66961,-5.34803 z m -132.972689,0.02947 c 1.461192,0 2.923151,0.555447 4.501229,2.075074 v 7.802737 c -1.548861,1.636529 -3.185355,2.57173 -4.821884,2.57173 -3.126939,0 -4.997885,-2.484317 -4.997885,-6.19575 0,-3.536062 2.366937,-6.253791 5.31854,-6.253791 z m 99.313479,5.435561 v 4.50031 c -1.958,1.665746 -3.85749,2.54316 -5.64013,2.54316 -1.89955,0 -3.7991,-0.789337 -3.7991,-2.805773 0,-2.25024 2.30862,-3.594769 9.43923,-4.237697 z m -61.212964,4.325229 c -0.905933,0 -1.7535,0.555328 -1.7535,1.753499 0,1.168954 0.730665,1.72401 1.7535,1.72401 0.20457,0 0.438868,-0.02913 0.672656,-0.08757 -0.08774,2.571695 -1.286112,4.149586 -3.62402,5.31854 l 0.468086,0.935251 c 2.717815,-1.168937 4.528879,-3.38984 4.528879,-6.662915 0,-1.811865 -0.701311,-2.980853 -2.045601,-2.980853 z m -42.104169,17.903536 -0.02862,2.601219 0.584187,6.370813 h 1.052291 l 0.584187,-6.370813 V 40.24197 Z m 6.078728,0 -0.02947,2.601219 0.585124,6.370813 h 1.052342 l 0.584187,-6.370813 V 40.24197 Z m 126.250795,0 -0.0295,2.601219 0.58418,6.370813 h 1.05229 l 0.58511,-6.370813 V 40.24197 Z m 6.07871,0 -0.0295,2.601219 0.58418,6.370813 h 1.05229 l 0.58419,-6.370813 V 40.24197 Z m -119.854201,0.81825 v 1.139805 h 8.386925 v 12.069924 c 0,3.506845 -1.373218,5.201502 -4.587842,5.201502 -1.607295,0 -3.302258,-0.847516 -4.41276,-2.776283 l -0.964742,0.78874 c 1.13972,2.133355 3.244181,3.214897 5.377502,3.214897 4.471246,0 5.932217,-2.805909 5.932217,-6.312754 V 41.060217 Z m -51.948812,0.613677 c -1.081286,0.496792 -2.514011,0.906273 -4.501229,1.169295 v 0.876289 h 4.179638 v 15.488437 h -5.582005 v 1.139822 h 12.12795 V 59.207915 H 18.41187 V 41.673894 Z m 75.323855,4.295739 c -3.682199,0 -6.809427,2.688581 -6.809427,7.393614 0,4.646565 3.127228,7.335555 6.809427,7.335555 3.682181,0 6.809409,-2.68899 6.809409,-7.335555 0,-4.705033 -3.127228,-7.393614 -6.809409,-7.393614 z m 19.547368,0 c -2.48402,0 -4.93873,1.286027 -6.04923,2.075074 l 0.58418,0.964742 c 1.16896,-0.818265 3.21444,-1.900011 5.31854,-1.900011 3.21463,0 4.15042,2.133577 4.17964,4.442268 -7.59817,0.672145 -10.75502,2.162094 -10.75502,5.28905 0,2.659346 2.36762,3.858046 4.88086,3.858046 2.07489,0 4.26687,-1.168869 5.87416,-2.454708 h 0.0581 l 0.14652,2.103643 h 1.08084 v -8.971112 c 0,-3.010053 -1.54867,-5.406992 -5.31854,-5.406992 z m 19.45893,0 c -2.25023,0 -3.9158,1.315619 -5.5231,3.039816 h -0.11704 l -0.14548,-2.688751 h -1.11126 v 14.027039 h 1.31581 V 50.294845 c 2.01645,-2.133321 3.38938,-3.155917 5.3766,-3.155917 2.77625,0 3.94559,1.490648 3.94559,4.646803 v 8.562006 h 1.31489 v -8.737989 c 0,-3.799101 -1.63675,-5.640132 -5.05593,-5.640132 z m 18.90422,0 c -2.25024,0 -3.91582,1.315619 -5.52311,3.039816 h -0.11704 l -0.14651,-2.688751 h -1.11032 v 14.027039 h 1.31581 V 50.294862 c 2.01645,-2.133338 3.38936,-3.155934 5.37658,-3.155934 2.77627,0 3.9456,1.490648 3.9456,4.646821 v 8.561988 h 1.3149 v -8.737989 c 0,-3.799084 -1.63675,-5.640115 -5.05594,-5.640115 z m 18.20301,0 c -3.65299,0 -7.01399,2.806147 -7.01399,7.365044 0,4.617348 3.33151,7.364125 7.39362,7.364125 2.48401,0 4.06192,-0.818469 5.31854,-1.665951 l -0.52523,-0.963838 c -1.31507,0.905932 -2.80623,1.519456 -4.70578,1.519456 -3.27307,0 -6.04936,-2.133269 -6.16626,-6.049238 h 11.9234 c 0.0584,-0.350673 0.0589,-0.731074 0.0589,-1.081763 0,-4.032871 -2.42574,-6.487835 -6.28328,-6.487835 z m 0.0295,1.111253 c 2.86392,0 4.87992,1.723362 5.08448,5.347092 h -10.7541 c 0.37992,-3.419177 2.98102,-5.347092 5.66962,-5.347092 z m -76.143015,0.02862 c 3.156155,0 5.435544,2.542377 5.435544,6.253792 0,3.682182 -2.279389,6.195733 -5.435544,6.195733 -3.156173,0 -5.435579,-2.513551 -5.435579,-6.195733 0,-3.711415 2.279406,-6.253792 5.435579,-6.253792 z m 23.580485,5.435562 v 4.500292 c -1.95799,1.665763 -3.85839,2.54316 -5.64104,2.54316 -1.89955,0 -3.7991,-0.789337 -3.7991,-2.805772 0,-2.250223 2.30955,-3.594769 9.44014,-4.23768 z M 36.235148,56.87028 c -0.905932,0 -1.753499,0.555328 -1.753499,1.753499 0,1.168971 0.730664,1.724009 1.753499,1.724009 0.204571,0 0.437949,-0.02913 0.671737,-0.08757 -0.08774,2.571679 -1.286112,4.149569 -3.62402,5.318523 l 0.468085,0.935269 c 2.717815,-1.168954 4.5298,-3.389875 4.5298,-6.662915 0,-1.811882 -0.701311,-2.980854 -2.045602,-2.980854 z M 125.40728,73.868053 V 94.88052 h 1.31582 v -3.975084 l 4.09119,-3.828591 6.07779,7.803675 h 1.49089 l -6.69239,-8.621888 5.75714,-5.406089 h -1.60699 l -9.00152,8.445887 h -0.11619 V 73.868053 Z m -74.564567,0.905762 -0.02862,2.601219 0.584187,6.370831 h 1.052291 l 0.584187,-6.370831 v -2.601219 z m 6.07871,0 -0.02947,2.601219 0.585124,6.370831 h 1.05241 l 0.584187,-6.370831 v -2.601219 z m 88.442377,0 -0.0295,2.601219 0.58511,6.370831 h 1.05135 l 0.58513,-6.370831 v -2.601219 z m 6.07871,0 -0.0295,2.601219 0.58419,6.370831 h 1.05231 l 0.58419,-6.370831 v -2.601219 z m -83.975218,0.84772 V 94.88052 h 1.286316 V 81.729753 c 0,-1.373508 -0.146171,-3.244199 -0.204553,-4.559272 h 0.05809 l 1.139822,3.302428 3.565961,9.292704 h 1.051353 l 3.62402,-9.292704 1.052273,-3.302428 h 0.08757 c -0.05843,1.315073 -0.175081,3.185764 -0.175081,4.559272 V 94.88052 h 1.314903 V 75.621535 h -1.782988 l -3.41853,9.030092 -1.139822,3.360487 h -0.117039 l -1.198801,-3.360487 -3.360471,-9.030092 z m -50.896538,0.23406 c -2.513245,0 -4.325314,1.197933 -5.874175,2.746793 l 0.84772,0.818248 c 1.285856,-1.402759 3.009883,-2.454708 4.909433,-2.454708 3.214607,0 4.617314,1.81224 4.617314,4.150131 0,3.360743 -3.390113,6.721554 -10.286918,12.946214 v 0.818247 h 12.625525 v -1.169329 h -7.160491 c -1.168937,0 -2.30881,0.08808 -3.506982,0.146511 5.932422,-5.49408 9.615199,-9.059717 9.615199,-12.771133 0,-3.156155 -2.133661,-5.230991 -5.786625,-5.230991 z m 76.844213,4.646804 c -2.484027,0 -4.938735,1.285123 -6.049238,2.074137 l 0.584187,0.964758 c 1.168955,-0.818247 3.214437,-1.899993 5.31854,-1.899993 3.214624,0 4.150421,2.133576 4.179638,4.44225 -7.598167,0.672145 -10.755004,2.163049 -10.755004,5.289953 0,2.659381 2.367602,3.85716 4.880846,3.85716 2.074887,0 4.266863,-1.168851 5.874158,-2.454725 h 0.05809 l 0.146511,2.104581 h 1.080843 v -8.97205 c 0,-3.010036 -1.548673,-5.406071 -5.318539,-5.406071 z m 22.177163,0 c -2.80548,0 -5.08523,1.578077 -6.60486,3.799083 h -0.0581 l -0.14651,-3.448939 h -1.11033 V 94.88052 h 1.3149 v -8.767479 c 1.92877,-3.185407 4.06239,-4.383288 6.4003,-4.383288 1.1105,0 1.63645,0.146 2.65928,0.496638 l 0.35106,-1.139805 c -0.87671,-0.467575 -1.87062,-0.584187 -2.80578,-0.584187 z m -18.144036,6.574446 v 4.501247 c -1.957984,1.665729 -3.858387,2.54224 -5.641035,2.54224 -1.89955,0 -3.799083,-0.789337 -3.799083,-2.80579 0,-2.250223 2.309526,-3.594769 9.440118,-4.237697 z m -61.212946,4.325229 c -0.905932,0 -1.753499,0.555345 -1.753499,1.753516 0,1.168954 0.730664,1.72493 1.753499,1.72493 0.204571,0 0.437949,-0.02998 0.671737,-0.08842 -0.08774,2.571696 -1.286112,4.150523 -3.62402,5.31946 l 0.468085,0.93433 c 2.717815,-1.168935 4.5298,-3.389856 4.5298,-6.662897 0,-1.811865 -0.701311,-2.98087 -2.045602,-2.98087 z M 143.31819,108.39985 v 1.11033 h 5.31854 v 15.66444 c 0,3.18539 1.51938,4.58784 4.17872,4.58784 1.37353,0 2.28026,-0.2918 3.47843,-0.87627 l -0.40912,-0.99425 c -1.02284,0.49681 -1.98737,0.7307 -2.89331,0.7307 -1.98722,0 -3.06838,-1.05195 -3.06838,-3.27296 v -16.94983 z m -11.30603,0.76019 c -0.75982,0 -1.37387,0.55493 -1.37387,1.40241 0,0.87672 0.61405,1.40336 1.37387,1.40336 0.75981,0 1.37386,-0.52664 1.37386,-1.40336 0,-0.84748 -0.61405,-1.40241 -1.37386,-1.40241 z m -81.169447,0.14548 -0.02862,2.60122 0.584187,6.37083 h 1.052291 l 0.584187,-6.37083 v -2.60122 z m 6.07871,0 -0.02947,2.60122 0.585124,6.37083 h 1.05241 l 0.584187,-6.37083 v -2.60122 z m 126.250807,0 -0.0295,2.60122 0.58419,6.37083 h 1.05229 l 0.58511,-6.37083 v -2.60122 z m 6.07871,0 -0.0295,2.60122 0.58419,6.37083 h 1.05227 l 0.58421,-6.37083 v -2.60122 z m -113.775438,0.4976 c -4.93882,0 -8.270823,3.82809 -8.270823,9.93585 0,6.13699 3.332003,10.0234 8.066253,10.0234 2.513244,0 4.265824,-1.05183 5.756233,-2.74682 l -0.818247,-0.84771 c -1.402741,1.57808 -2.863883,2.36718 -4.821884,2.36718 -4.149774,0 -6.779937,-3.4481 -6.779937,-8.79605 0,-5.34794 2.630964,-8.7085 6.868405,-8.7085 1.753415,0 3.155883,0.78908 4.178718,1.95804 l 0.818231,-0.87721 c -1.022818,-1.19817 -2.775943,-2.30818 -4.996949,-2.30818 z m -58.612663,0.58418 c -2.396342,0 -4.354395,1.02299 -5.757136,2.27963 l 0.789677,0.87629 c 1.168954,-1.13974 3.010122,-2.04558 4.938906,-2.04558 2.63013,0 4.441331,1.37339 4.441331,3.47751 0,2.2502 -1.870095,4.06261 -6.750465,4.06261 v 1.13982 c 5.201825,0 7.451673,1.75262 7.451673,4.3243 0,2.48402 -2.191073,4.12067 -5.055007,4.12067 -2.805483,0 -4.61728,-1.16836 -5.844685,-2.39574 l -0.730698,0.90577 c 1.285856,1.25661 3.331542,2.62979 6.575383,2.62979 3.565296,0 6.399383,-2.04521 6.399383,-5.28906 0,-2.63013 -2.337993,-4.35455 -4.938906,-4.85136 v -0.11704 c 2.396342,-0.70138 4.237697,-2.16254 4.237697,-4.61733 0,-2.86393 -2.542529,-4.50029 -5.757153,-4.50029 z m 76.552128,4.64681 c -2.484027,0 -4.938735,1.28602 -6.049238,2.07507 l 0.584187,0.96384 c 1.168955,-0.81828 3.214437,-1.89909 5.31854,-1.89909 3.214624,0 4.150421,2.13266 4.179638,4.44133 -7.598167,0.67215 -10.755004,2.16303 -10.755004,5.28997 0,2.65935 2.367602,3.85714 4.880846,3.85714 2.074887,0 4.266863,-1.16887 5.874158,-2.4547 h 0.05809 l 0.146511,2.10456 h 1.080843 v -8.97205 c 0,-3.01004 -1.548673,-5.40607 -5.318539,-5.40607 z m 16.185983,0 c -1.57809,0 -2.4252,0.87665 -3.24347,2.25015 h -0.0589 l -0.14566,-1.90001 h -1.08178 v 14.02798 h 1.28632 v -10.57902 c 0.90593,-1.75343 1.7245,-2.63071 3.01034,-2.63071 1.34429,0 1.98662,1.08129 1.98662,3.18541 v 10.02432 h 1.22736 v -10.57902 c 0.93514,-1.75343 1.72423,-2.63071 2.98085,-2.63071 1.37351,0 2.01701,1.08129 2.01701,3.18541 v 10.02432 h 1.28542 v -10.16991 c 0,-2.80549 -1.08091,-4.20821 -3.0389,-4.20821 -1.57809,0 -2.42612,0.87688 -3.44896,2.48418 -0.3799,-1.66575 -1.25665,-2.48418 -2.77628,-2.48418 z m 59.28439,0 c -3.65298,0 -7.014,2.80521 -7.014,7.36412 0,4.61735 3.33151,7.36414 7.39364,7.36414 2.48401,0 4.06191,-0.81755 5.31852,-1.66503 l -0.52523,-0.96476 c -1.31505,0.90594 -2.80621,1.51946 -4.70576,1.51946 -3.27308,0 -6.04936,-2.13325 -6.16626,-6.04924 h 11.92339 c 0.0584,-0.35069 0.0589,-0.73015 0.0589,-1.08084 0,-4.03287 -2.42573,-6.48785 -6.28327,-6.48785 z m -44.23731,0.35014 v 1.11034 h 7.04255 v 12.91764 h 1.28632 v -14.02798 z m 44.2668,0.76019 c 2.86392,0 4.87993,1.72427 5.08448,5.34803 h -10.7541 c 0.37992,-3.41919 2.98102,-5.34803 5.66962,-5.34803 z m -71.466736,5.46505 v 4.50031 c -1.957984,1.66575 -3.858387,2.54224 -5.641035,2.54224 -1.89955,0 -3.799083,-0.78935 -3.799083,-2.80579 0,-2.25024 2.309526,-3.59383 9.440118,-4.23676 z m -61.212946,4.32523 c -0.905932,0 -1.753499,0.55439 -1.753499,1.75258 0,1.16894 0.730664,1.72493 1.753499,1.72493 0.204571,0 0.437949,-0.03 0.671737,-0.0884 -0.08774,2.5717 -1.286112,4.15051 -3.62402,5.31946 l 0.468085,0.93527 c 2.717815,-1.16895 4.5298,-3.38986 4.5298,-6.66293 0,-1.81187 -0.701311,-2.98084 -2.045602,-2.98084 z"
       style="stroke-width:1"
       id="path1969" />
  </g>
</svg>
