<?xml version="1.0" encoding="UTF-8" standalone="no"?>
<!-- Created with Inkscape (http://www.inkscape.org/) -->

<svg
   width="24"
   height="24"
   sodipodi:docname="network-server-database.svg"
   inkscape:version="1.2.2 (b0a8486541, 2022-12-01)"
   version="1.1"
   id="svg800"
   xmlns:inkscape="http://www.inkscape.org/namespaces/inkscape"
   xmlns:sodipodi="http://sodipodi.sourceforge.net/DTD/sodipodi-0.dtd"
   xmlns="http://www.w3.org/2000/svg"
   xmlns:svg="http://www.w3.org/2000/svg">
  <defs
     id="defs4" />
  <sodipodi:namedview
     id="base"
     pagecolor="#ffffff"
     bordercolor="#666666"
     borderopacity="1.0"
     inkscape:pageopacity="0.0"
     inkscape:pageshadow="2"
     inkscape:zoom="11.381428"
     inkscape:cx="22.624578"
     inkscape:cy="14.716958"
     inkscape:document-units="px"
     inkscape:current-layer="layer1"
     showgrid="true"
     inkscape:showpageshadow="false"
     borderlayer="true"
     inkscape:window-width="1280"
     inkscape:window-height="960"
     inkscape:window-x="-8"
     inkscape:window-y="-3"
     inkscape:window-maximized="1"
     units="px"
     showguides="true"
     inkscape:guide-bbox="true"
     inkscape:snap-global="true"
     inkscape:pagecheckerboard="0"
     inkscape:deskcolor="#d1d1d1">
    <inkscape:grid
       type="xygrid"
       id="grid4101"
       empspacing="5"
       visible="true"
       enabled="true"
       snapvisiblegridlinesonly="true"
       originx="-8"
       originy="-10.000003" />
  </sodipodi:namedview>
  <g
     inkscape:label="layer1"
     inkscape:groupmode="layer"
     id="layer1"
     transform="translate(-4,-1025.3622)"
     style="display:inline">
    <path
       d="m 15.5,1043.0184 v 4.3438 h -11 v 1 h 11 v 0 h 1 v 0 h 11 v -1 h -11 v -4.3438 z"
       sodipodi:nodetypes="ccccccccccccc"
       id="path509" />
    <g
       transform="matrix(1.3333333,0,0,1.4166667,5.8333333,-444.65095)"
       id="g654">
      <path
         transform="translate(0,1036.3622)"
         d="M 7.6484375,2 C 4.5068448,2 2,2.9528024 2,4 v 8 c 0,1.047198 2.5068448,2 5.6484375,2 3.1415925,0 5.6249995,-0.952802 5.6249995,-2 V 4 c 0,-1.0471976 -2.483407,-2 -5.6249995,-2 z m 0,0.7132353 c 2.6179935,0 4.8749995,1.028331 4.8749995,1.5519297 0,0.5235988 -2.257006,1.2647059 -4.8749995,1.2647059 -2.6179939,0 -4.8984374,-0.7411071 -4.8984374,-1.2647059 0,-0.5235987 2.2804435,-1.5519297 4.8984374,-1.5519297 z M 2.7500001,5.2784922 C 3.8363379,5.8272361 5.6760782,6.2863581 7.6484375,6.2872238 9.619747,6.2867828 11.435752,5.8284725 12.523437,5.2804453 V 8 c 0,0.5235988 -2.257006,1.0661765 -4.8749995,1.0661765 C 5.0304436,9.0661765 2.7500001,8.5235988 2.7500001,8 Z m 0,3.6907174 C 3.8363379,9.5179535 5.6760782,9.8226636 7.6484375,9.8235294 9.619747,9.8230883 11.435752,9.5191898 12.523437,8.9711627 v 2.7857693 c 0,0.523599 -2.257006,1.507774 -4.8749995,1.507774 -2.6179939,0 -4.8984374,-0.984175 -4.8984374,-1.507774 z"
         id="path652" />
    </g>
  </g>
</svg>
